{
	"compilerOptions": {
		"target": "es6",
		"baseUrl": ".",
		"paths": {
			"@/*": [
				"src/*"
			]
		},
		"sourceMap": true
	},
	"include": [
		"./src/**/*"
	],
	"exclude": [
		"node_modules",
		"dist"
	]
}
